[
  {
    "pk": 1,
    "model": "core.subscription",
    "fields": {
      "price": 0.0,
      "name": "Single",
      "amount_of_aircrafts": 1,
      "period": 1,
      "amount_of_users": 1,
      "color": "green"
    }
  },
  {
    "pk": 2,
    "model": "core.subscription",
    "fields": {
      "price": 10.0,
      "name": "Twin",
      "amount_of_aircrafts": 5,
      "period": 1,
      "amount_of_users": 2,
      "color": "red"
    }
  },
  {
    "pk": 3,
    "model": "core.subscription",
    "fields": {
      "price": 20.0,
      "name": "Jet",
      "amount_of_aircrafts": 9999,
      "period": 1,
      "amount_of_users": 9999,
      "color": "blue"
    }
  }
]